c:\dev\projects\game08\game08\debug\vc120.pdb
c:\dev\projects\game08\game08\debug\vc120.idb
c:\dev\projects\game08\game08\debug\keyboardevent.obj
c:\dev\projects\game08\game08\debug\keymapping.obj
c:\dev\projects\game08\game08\debug\logger.obj
c:\dev\projects\game08\game08\debug\lookaroundcontroller.obj
c:\dev\projects\game08\game08\debug\keyboardcontroller.obj
c:\dev\projects\game08\game08\debug\moveevent.obj
c:\dev\projects\game08\game08\debug\physicalobject.obj
c:\dev\projects\game08\game08\debug\player.obj
c:\dev\projects\game08\game08\debug\renderable.obj
c:\dev\projects\game08\game08\debug\renderer.obj
c:\dev\projects\game08\game08\debug\consolekeyboardeventhandler.obj
c:\dev\projects\game08\game08\debug\scene.obj
c:\dev\projects\game08\game08\debug\shader.obj
c:\dev\projects\game08\game08\debug\shootcontroller.obj
c:\dev\projects\game08\game08\debug\spherebound.obj
c:\dev\projects\game08\game08\debug\testcontroller.obj
c:\dev\projects\game08\game08\debug\testgameobject.obj
c:\dev\projects\game08\game08\debug\texture.obj
c:\dev\projects\game08\game08\debug\tutorial01.obj
c:\dev\projects\game08\game08\debug\identifiable.obj
c:\dev\projects\game08\game08\debug\boxbound.obj
c:\dev\projects\game08\game08\debug\camera.obj
c:\dev\projects\game08\game08\debug\collisionevent.obj
c:\dev\projects\game08\game08\debug\event.obj
c:\dev\projects\game08\game08\debug\eventmanager.obj
c:\dev\projects\game08\game08\debug\gameloop.obj
c:\dev\projects\game08\debug\game08.ilk
c:\dev\projects\game08\debug\game08.exe
c:\dev\projects\game08\debug\game08.pdb
c:\dev\projects\game08\game08\debug\game08.tlog\cl.command.1.tlog
c:\dev\projects\game08\game08\debug\game08.tlog\cl.read.1.tlog
c:\dev\projects\game08\game08\debug\game08.tlog\cl.write.1.tlog
c:\dev\projects\game08\game08\debug\game08.tlog\link.command.1.tlog
c:\dev\projects\game08\game08\debug\game08.tlog\link.read.1.tlog
c:\dev\projects\game08\game08\debug\game08.tlog\link.write.1.tlog
