^C:\DEV\PROJECTS\GAME08\GAME08\DEBUG\BOXBOUND.OBJ|C:\DEV\PROJECTS\GAME08\GAME08\DEBUG\CAMERA.OBJ|C:\DEV\PROJECTS\GAME08\GAME08\DEBUG\COLLISIONEVENT.OBJ|C:\DEV\PROJECTS\GAME08\GAME08\DEBUG\CONSOLEKEYBOARDEVENTHANDLER.OBJ|C:\DEV\PROJECTS\GAME08\GAME08\DEBUG\EVENT.OBJ|C:\DEV\PROJECTS\GAME08\GAME08\DEBUG\EVENTMANAGER.OBJ|C:\DEV\PROJECTS\GAME08\GAME08\DEBUG\GAMELOOP.OBJ|C:\DEV\PROJECTS\GAME08\GAME08\DEBUG\IDENTIFIABLE.OBJ|C:\DEV\PROJECTS\GAME08\GAME08\DEBUG\KEYBOARDCONTROLLER.OBJ|C:\DEV\PROJECTS\GAME08\GAME08\DEBUG\KEYBOARDEVENT.OBJ|C:\DEV\PROJECTS\GAME08\GAME08\DEBUG\KEYMAPPING.OBJ|C:\DEV\PROJECTS\GAME08\GAME08\DEBUG\LOGGER.OBJ|C:\DEV\PROJECTS\GAME08\GAME08\DEBUG\LOOKAROUNDCONTROLLER.OBJ|C:\DEV\PROJECTS\GAME08\GAME08\DEBUG\MOVEEVENT.OBJ|C:\DEV\PROJECTS\GAME08\GAME08\DEBUG\PHYSICALOBJECT.OBJ|C:\DEV\PROJECTS\GAME08\GAME08\DEBUG\PLAYER.OBJ|C:\DEV\PROJECTS\GAME08\GAME08\DEBUG\RENDERABLE.OBJ|C:\DEV\PROJECTS\GAME08\GAME08\DEBUG\RENDERER.OBJ|C:\DEV\PROJECTS\GAME08\GAME08\DEBUG\SCENE.OBJ|C:\DEV\PROJECTS\GAME08\GAME08\DEBUG\SHADER.OBJ|C:\DEV\PROJECTS\GAME08\GAME08\DEBUG\SHOOTCONTROLLER.OBJ|C:\DEV\PROJECTS\GAME08\GAME08\DEBUG\SPHEREBOUND.OBJ|C:\DEV\PROJECTS\GAME08\GAME08\DEBUG\TESTCONTROLLER.OBJ|C:\DEV\PROJECTS\GAME08\GAME08\DEBUG\TESTGAMEOBJECT.OBJ|C:\DEV\PROJECTS\GAME08\GAME08\DEBUG\TEXTURE.OBJ|C:\DEV\PROJECTS\GAME08\GAME08\DEBUG\TUTORIAL01.OBJ
C:\DEV\PROJECTS\GAME08\DEBUG\GAME08.ILK
C:\DEV\PROJECTS\GAME08\DEBUG\GAME08.EXE
C:\DEV\PROJECTS\GAME08\DEBUG\GAME08.PDB
